<mxfile host="www.draw.io" modified="2020-08-12T13:35:25.835Z" agent="5.0 (Windows)" etag="B-_mT41DEuJpFdLrxBBd" version="13.6.2" type="gitlab">
  <diagram id="O5Thk8qJjQpYoOTOiQrY" name="Page-1">
    <mxGraphModel dx="1038" dy="529" grid="1" gridSize="10" guides="1" tooltips="1" connect="1" arrows="1" fold="1" page="1" pageScale="1" pageWidth="850" pageHeight="1100" math="0" shadow="0">
      <root>
        <mxCell id="0" />
        <mxCell id="1" parent="0" />
        <mxCell id="IT4guImNfh3KZpESXHfW-26" value="" style="edgeStyle=orthogonalEdgeStyle;rounded=0;orthogonalLoop=1;jettySize=auto;html=1;" parent="1" source="IT4guImNfh3KZpESXHfW-1" target="IT4guImNfh3KZpESXHfW-2" edge="1">
          <mxGeometry relative="1" as="geometry">
            <Array as="points">
              <mxPoint x="425" y="130" />
              <mxPoint x="425" y="130" />
            </Array>
          </mxGeometry>
        </mxCell>
        <mxCell id="42IjIXP9y2WSEIWLeNYF-1" value="&lt;div&gt;Module&lt;/div&gt;" style="edgeLabel;html=1;align=center;verticalAlign=middle;resizable=0;points=[];" vertex="1" connectable="0" parent="IT4guImNfh3KZpESXHfW-26">
          <mxGeometry x="-0.1579" y="-6" relative="1" as="geometry">
            <mxPoint x="5" y="-6" as="offset" />
          </mxGeometry>
        </mxCell>
        <mxCell id="IT4guImNfh3KZpESXHfW-1" value="Microservice App" style="rounded=1;whiteSpace=wrap;html=1;fillColor=#dae8fc;strokeColor=#6c8ebf;" parent="1" vertex="1">
          <mxGeometry x="325" y="20" width="200" height="70" as="geometry" />
        </mxCell>
        <mxCell id="IT4guImNfh3KZpESXHfW-2" value="Service Parent" style="rounded=1;whiteSpace=wrap;html=1;fillColor=#fff2cc;strokeColor=#d6b656;" parent="1" vertex="1">
          <mxGeometry x="320" y="160" width="200" height="30" as="geometry" />
        </mxCell>
        <mxCell id="IT4guImNfh3KZpESXHfW-6" value="&lt;div&gt;Config Server&lt;/div&gt;&lt;div&gt;localhost:8888&lt;br&gt;&lt;/div&gt;" style="rounded=1;whiteSpace=wrap;html=1;fillColor=#f5f5f5;strokeColor=#666666;fontColor=#333333;" parent="1" vertex="1">
          <mxGeometry x="30" y="240" width="120" height="60" as="geometry" />
        </mxCell>
        <mxCell id="IT4guImNfh3KZpESXHfW-8" value="&lt;div&gt;Eureka Server&lt;/div&gt;&lt;div&gt;localhost:8500&lt;br&gt;&lt;/div&gt;" style="rounded=1;whiteSpace=wrap;html=1;fillColor=#f5f5f5;strokeColor=#666666;fontColor=#333333;" parent="1" vertex="1">
          <mxGeometry x="80" y="320" width="120" height="60" as="geometry" />
        </mxCell>
        <mxCell id="IT4guImNfh3KZpESXHfW-12" value="&lt;div&gt;Account Service&lt;/div&gt;&lt;div&gt;localhost:8501&lt;br&gt;&lt;/div&gt;" style="rounded=1;whiteSpace=wrap;html=1;fillColor=#f5f5f5;strokeColor=#666666;fontColor=#333333;" parent="1" vertex="1">
          <mxGeometry x="230" y="320" width="120" height="60" as="geometry" />
        </mxCell>
        <mxCell id="IT4guImNfh3KZpESXHfW-13" value="&lt;div&gt;Ticket Service App&lt;br&gt;&lt;/div&gt;&lt;div&gt;localhost:8502&lt;br&gt;&lt;/div&gt;" style="rounded=1;whiteSpace=wrap;html=1;fillColor=#f5f5f5;strokeColor=#666666;fontColor=#333333;" parent="1" vertex="1">
          <mxGeometry x="370" y="320" width="120" height="60" as="geometry" />
        </mxCell>
        <mxCell id="IT4guImNfh3KZpESXHfW-15" value="" style="endArrow=classic;html=1;entryX=0.567;entryY=0;entryDx=0;entryDy=0;entryPerimeter=0;exitX=0.35;exitY=1.033;exitDx=0;exitDy=0;exitPerimeter=0;" parent="1" source="IT4guImNfh3KZpESXHfW-2" target="IT4guImNfh3KZpESXHfW-12" edge="1">
          <mxGeometry width="50" height="50" relative="1" as="geometry">
            <mxPoint x="390" y="200" as="sourcePoint" />
            <mxPoint x="430" y="335" as="targetPoint" />
            <Array as="points" />
          </mxGeometry>
        </mxCell>
        <mxCell id="IT4guImNfh3KZpESXHfW-32" value="Module" style="edgeLabel;html=1;align=center;verticalAlign=middle;resizable=0;points=[];" parent="IT4guImNfh3KZpESXHfW-15" vertex="1" connectable="0">
          <mxGeometry x="-0.0118" y="1" relative="1" as="geometry">
            <mxPoint as="offset" />
          </mxGeometry>
        </mxCell>
        <mxCell id="IT4guImNfh3KZpESXHfW-16" value="&lt;div&gt;Notification Service App&lt;br&gt;&lt;/div&gt;&lt;div&gt;localhost:8503&lt;br&gt;&lt;/div&gt;" style="rounded=1;whiteSpace=wrap;html=1;fillColor=#f5f5f5;strokeColor=#666666;fontColor=#333333;" parent="1" vertex="1">
          <mxGeometry x="510" y="320" width="140" height="60" as="geometry" />
        </mxCell>
        <mxCell id="IT4guImNfh3KZpESXHfW-17" value="" style="endArrow=classic;html=1;entryX=0.183;entryY=0;entryDx=0;entryDy=0;entryPerimeter=0;exitX=0.97;exitY=1.067;exitDx=0;exitDy=0;exitPerimeter=0;" parent="1" source="IT4guImNfh3KZpESXHfW-2" target="IT4guImNfh3KZpESXHfW-16" edge="1">
          <mxGeometry width="50" height="50" relative="1" as="geometry">
            <mxPoint x="400" y="355" as="sourcePoint" />
            <mxPoint x="450" y="305" as="targetPoint" />
          </mxGeometry>
        </mxCell>
        <mxCell id="IT4guImNfh3KZpESXHfW-24" value="Module" style="edgeLabel;html=1;align=center;verticalAlign=middle;resizable=0;points=[];" parent="IT4guImNfh3KZpESXHfW-17" vertex="1" connectable="0">
          <mxGeometry x="-0.3963" y="-2" relative="1" as="geometry">
            <mxPoint as="offset" />
          </mxGeometry>
        </mxCell>
        <mxCell id="IT4guImNfh3KZpESXHfW-20" value="" style="endArrow=classic;html=1;entryX=1;entryY=0.25;entryDx=0;entryDy=0;exitX=0;exitY=0.25;exitDx=0;exitDy=0;" parent="1" source="IT4guImNfh3KZpESXHfW-2" target="IT4guImNfh3KZpESXHfW-6" edge="1">
          <mxGeometry width="50" height="50" relative="1" as="geometry">
            <mxPoint x="370" y="216" as="sourcePoint" />
            <mxPoint x="140" y="216" as="targetPoint" />
          </mxGeometry>
        </mxCell>
        <mxCell id="IT4guImNfh3KZpESXHfW-31" value="Module" style="edgeLabel;html=1;align=center;verticalAlign=middle;resizable=0;points=[];" parent="IT4guImNfh3KZpESXHfW-20" vertex="1" connectable="0">
          <mxGeometry x="0.1202" relative="1" as="geometry">
            <mxPoint as="offset" />
          </mxGeometry>
        </mxCell>
        <mxCell id="IT4guImNfh3KZpESXHfW-22" value="" style="endArrow=classic;html=1;entryX=1;entryY=0.25;entryDx=0;entryDy=0;exitX=0.05;exitY=1.033;exitDx=0;exitDy=0;exitPerimeter=0;" parent="1" source="IT4guImNfh3KZpESXHfW-2" target="IT4guImNfh3KZpESXHfW-8" edge="1">
          <mxGeometry width="50" height="50" relative="1" as="geometry">
            <mxPoint x="370" y="216" as="sourcePoint" />
            <mxPoint x="130" y="215" as="targetPoint" />
          </mxGeometry>
        </mxCell>
        <mxCell id="IT4guImNfh3KZpESXHfW-30" value="Module" style="edgeLabel;html=1;align=center;verticalAlign=middle;resizable=0;points=[];" parent="IT4guImNfh3KZpESXHfW-22" vertex="1" connectable="0">
          <mxGeometry x="-0.1314" relative="1" as="geometry">
            <mxPoint as="offset" />
          </mxGeometry>
        </mxCell>
        <mxCell id="IT4guImNfh3KZpESXHfW-23" value="" style="endArrow=classic;html=1;entryX=0.5;entryY=0;entryDx=0;entryDy=0;exitX=0.565;exitY=1.033;exitDx=0;exitDy=0;exitPerimeter=0;" parent="1" source="IT4guImNfh3KZpESXHfW-2" target="IT4guImNfh3KZpESXHfW-13" edge="1">
          <mxGeometry width="50" height="50" relative="1" as="geometry">
            <mxPoint x="370" y="235" as="sourcePoint" />
            <mxPoint x="300.03999999999996" y="295" as="targetPoint" />
          </mxGeometry>
        </mxCell>
        <mxCell id="IT4guImNfh3KZpESXHfW-28" value="Module" style="edgeLabel;html=1;align=center;verticalAlign=middle;resizable=0;points=[];" parent="IT4guImNfh3KZpESXHfW-23" vertex="1" connectable="0">
          <mxGeometry x="-0.1589" y="3" relative="1" as="geometry">
            <mxPoint as="offset" />
          </mxGeometry>
        </mxCell>
        <mxCell id="IT4guImNfh3KZpESXHfW-25" value="Common Service App" style="rounded=1;whiteSpace=wrap;html=1;fillColor=#ffe6cc;strokeColor=#d79b00;" parent="1" vertex="1">
          <mxGeometry x="700" y="320" width="120" height="40" as="geometry" />
        </mxCell>
        <mxCell id="IT4guImNfh3KZpESXHfW-34" value="" style="endArrow=classic;html=1;exitX=1;exitY=0.25;exitDx=0;exitDy=0;entryX=0.5;entryY=0;entryDx=0;entryDy=0;" parent="1" source="IT4guImNfh3KZpESXHfW-2" target="IT4guImNfh3KZpESXHfW-25" edge="1">
          <mxGeometry width="50" height="50" relative="1" as="geometry">
            <mxPoint x="400" y="355" as="sourcePoint" />
            <mxPoint x="764" y="280" as="targetPoint" />
            <Array as="points" />
          </mxGeometry>
        </mxCell>
        <mxCell id="IT4guImNfh3KZpESXHfW-36" value="Module" style="edgeLabel;html=1;align=center;verticalAlign=middle;resizable=0;points=[];" parent="IT4guImNfh3KZpESXHfW-34" vertex="1" connectable="0">
          <mxGeometry x="-0.2275" y="1" relative="1" as="geometry">
            <mxPoint x="56.62" y="34.35" as="offset" />
          </mxGeometry>
        </mxCell>
        <mxCell id="IT4guImNfh3KZpESXHfW-37" value="" style="endArrow=classic;html=1;entryX=0.25;entryY=1;entryDx=0;entryDy=0;exitX=0.45;exitY=1.025;exitDx=0;exitDy=0;exitPerimeter=0;" parent="1" target="IT4guImNfh3KZpESXHfW-13" edge="1">
          <mxGeometry width="50" height="50" relative="1" as="geometry">
            <mxPoint x="764" y="360" as="sourcePoint" />
            <mxPoint x="380" y="424" as="targetPoint" />
            <Array as="points">
              <mxPoint x="764" y="440" />
              <mxPoint x="630" y="440" />
              <mxPoint x="400" y="440" />
            </Array>
          </mxGeometry>
        </mxCell>
        <mxCell id="IT4guImNfh3KZpESXHfW-41" value="&lt;div&gt;Dependency&lt;/div&gt;" style="edgeLabel;html=1;align=center;verticalAlign=middle;resizable=0;points=[];" parent="IT4guImNfh3KZpESXHfW-37" vertex="1" connectable="0">
          <mxGeometry x="-0.5429" y="-1" relative="1" as="geometry">
            <mxPoint x="6" y="-63" as="offset" />
          </mxGeometry>
        </mxCell>
        <mxCell id="IT4guImNfh3KZpESXHfW-38" value="" style="endArrow=classic;html=1;entryX=0.5;entryY=1;entryDx=0;entryDy=0;" parent="1" target="IT4guImNfh3KZpESXHfW-16" edge="1">
          <mxGeometry width="50" height="50" relative="1" as="geometry">
            <mxPoint x="580" y="440" as="sourcePoint" />
            <mxPoint x="450" y="305" as="targetPoint" />
            <Array as="points" />
          </mxGeometry>
        </mxCell>
        <mxCell id="IT4guImNfh3KZpESXHfW-39" value="" style="endArrow=classic;html=1;entryX=0.5;entryY=1;entryDx=0;entryDy=0;" parent="1" target="IT4guImNfh3KZpESXHfW-12" edge="1">
          <mxGeometry width="50" height="50" relative="1" as="geometry">
            <mxPoint x="410" y="440" as="sourcePoint" />
            <mxPoint x="260" y="455" as="targetPoint" />
            <Array as="points">
              <mxPoint x="290" y="440" />
            </Array>
          </mxGeometry>
        </mxCell>
      </root>
    </mxGraphModel>
  </diagram>
</mxfile>
